uart_rx.vcd
$date
	Sat Jul 04 20:50:54 2026
$end
$version
	Icarus Verilog
$end
$timescale
	1ps
$end
$scope module tb_uart_rx $end
$var wire 1 ! data_valid $end
$var wire 8 " data_out [7:0] $end
$var reg 1 # baud_tick $end
$var reg 1 $ clk $end
$var reg 1 % reset $end
$var reg 1 & rx $end
$scope module uut $end
$var wire 1 # baud_tick $end
$var wire 1 $ clk $end
$var wire 1 % reset $end
$var wire 1 & rx $end
$var parameter 2 ' DATA $end
$var parameter 2 ( IDLE $end
$var parameter 2 ) START $end
$var parameter 2 * STOP $end
$var reg 4 + bit_index [3:0] $end
$var reg 8 , data_out [7:0] $end
$var reg 8 - data_reg [7:0] $end
$var reg 1 ! data_valid $end
$var reg 2 . state [1:0] $end
$upscope $end
$scope task baud_pulse $end
$upscope $end
$upscope $end
$enddefinitions $end
$comment Show the parameter values. $end
$dumpall
b11 *
b1 )
b0 (
b10 '
$end
#0
$dumpvars
b0 .
b0 -
b0 ,
b0 +
1&
1%
0$
0#
b0 "
0!
$end
#5000
1$
#10000
0$
#15000
1$
#20000
0$
0%
#25000
1$
#30000
0$
#35000
1$
#40000
0$
#45000
1$
#50000
0$
#55000
1$
#60000
0$
0&
#65000
b1 .
1$
#70000
0$
#75000
1$
#80000
0$
1#
#85000
b10 .
1$
#90000
0$
0#
#95000
1$
#100000
0$
#105000
1$
#110000
0$
#115000
1$
#120000
0$
#125000
1$
#130000
0$
#135000
1$
#140000
0$
1#
#145000
b1 +
1$
#150000
0$
0#
#155000
1$
#160000
0$
#165000
1$
#170000
0$
#175000
1$
#180000
0$
1&
#185000
1$
#190000
0$
#195000
1$
#200000
0$
1#
#205000
b10 +
b10 -
1$
#210000
0$
0#
#215000
1$
#220000
0$
#225000
1$
#230000
0$
#235000
1$
#240000
0$
#245000
1$
#250000
0$
#255000
1$
#260000
0$
1#
#265000
b11 +
b110 -
1$
#270000
0$
0#
#275000
1$
#280000
0$
#285000
1$
#290000
0$
#295000
1$
#300000
0$
0&
#305000
1$
#310000
0$
#315000
1$
#320000
0$
1#
#325000
b100 +
1$
#330000
0$
0#
#335000
1$
#340000
0$
#345000
1$
#350000
0$
#355000
1$
#360000
0$
#365000
1$
#370000
0$
#375000
1$
#380000
0$
1#
#385000
b101 +
1$
#390000
0$
0#
#395000
1$
#400000
0$
#405000
1$
#410000
0$
#415000
1$
#420000
0$
1&
#425000
1$
#430000
0$
#435000
1$
#440000
0$
1#
#445000
b110 +
b100110 -
1$
#450000
0$
0#
#455000
1$
#460000
0$
#465000
1$
#470000
0$
#475000
1$
#480000
0$
0&
#485000
1$
#490000
0$
#495000
1$
#500000
0$
1#
#505000
b111 +
1$
#510000
0$
0#
#515000
1$
#520000
0$
#525000
1$
#530000
0$
#535000
1$
#540000
0$
1&
#545000
1$
#550000
0$
#555000
1$
#560000
0$
1#
#565000
b11 .
b10100110 -
1$
#570000
0$
0#
#575000
1$
#580000
0$
#585000
1$
#590000
0$
#595000
1$
#600000
0$
#605000
1$
#610000
0$
#615000
1$
#620000
0$
1#
#625000
b0 .
1!
b10100110 "
b10100110 ,
1$
#630000
0$
0#
#635000
0!
1$
